…
## Loading in the dataset

The dataset used for this project can be found in this project’s
repository under the `data` folder as `sr-dataset.cv`. It can be
imported into your environment using the following code chunk:

``` r
sr.dataset <- read.csv("~/github/university-meat-reduction/data/sr-dataset.csv")

print(as_tibble(sr.dataset))
```

    ## # A tibble: 31 × 18
    ##    study.title   country year.…¹ year.…² eval.…³ appro…⁴ outco…⁵ effec…⁶ effec…⁷
    ##    <chr>         <chr>     <int>   <int> <chr>   <chr>   <chr>   <chr>     <dbl>
    ##  1 Andersson & … Sweden     2021    2019 Betwee… Multim… Observ… ^          2.78
    ##  2 Brunner et a… Sweden     2018    2016 Pre-Po… Multim… Observ… ^          1.09
    ##  3 Campbell-Arv… USA        2011    2010 Betwee… Multim… Intend… ^         12.2 
    ##  4 Carfora et a… Italy      2019    2018 Both    Consci… Self-R… ^          2.59
    ##  5 Carfora, Cas… Italy      2017    2016 Both    Consci… Self-R… ^          3.49
    ##  6 Carfora, Cas… Italy      2017    2015 Both    Consci… Self-R… ^          3.73
    ##  7 Cerezo-Priet… Spain      2021    2020 Pre-Po… Multim… Observ… ^          1.71
    ##  8 Dissen & Cro… USA        2020    2019 Both    Consci… Self-R… ^          3.2 
    ##  9 Garnett et a… England    2019    2017 Betwee… Choice… Observ… ^          1.52
    ## 10 Garnett et a… England    2020    2017 Betwee… Choice… Observ… <>         0.82
    ## # … with 21 more rows, 9 more variables: lower.ci <dbl>, higher.ci <dbl>,
    ## #   num.strat <int>, inform.mess <int>, financial.inc <int>, menu.pres <int>,
    ## #   area.layout <int>, menu.off <int>, num.study <int>, and abbreviated
    ## #   variable names ¹​year.pub, ²​year.cond, ³​eval.method, ⁴​approach,
    ## #   ⁵​outcome.var, ⁶​effect.dir, ⁷​effect.mag
…
